<?xml version="1.0" encoding="UTF-8" standalone="no"?>
<svg width="60px" height="56px" viewBox="0 0 60 56" version="1.1" xmlns="http://www.w3.org/2000/svg" xmlns:xlink="http://www.w3.org/1999/xlink" xmlns:sketch="http://www.bohemiancoding.com/sketch/ns">
    <!-- Generator: Sketch 3.2.2 (9983) - http://www.bohemiancoding.com/sketch -->
    <title>123 - Insert Rectangle (Outline)</title>
    <desc>Created with Sketch.</desc>
    <defs></defs>
    <g id="Page-1" stroke="none" stroke-width="1" fill="none" fill-rule="evenodd" sketch:type="MSPage">
        <g id="123---Insert-Rectangle-(Outline)" sketch:type="MSLayerGroup" transform="translate(1.000000, 1.000000)">
            <path d="M47,39 C47,47.284 40.284,54 32,54 C23.716,54 17,47.284 17,39 C17,30.716 23.716,24 32,24 C40.284,24 47,30.716 47,39 L47,39 Z" id="Stroke-17" stroke="#000000" stroke-width="2" sketch:type="MSShapeGroup"></path>
            <path d="M32,9 L32,24 C38.897,24 44.692,28.661 46.444,35 L58,35 L58,9 L32,9 L32,9 Z M32,24 L32,20.89 L20.186,0.215 L0,35 L17.556,35 C19.308,28.661 25.103,24 32,24 L32,24 Z" id="Stroke-18" stroke="#000000" stroke-width="2" stroke-linejoin="round" sketch:type="MSShapeGroup"></path>
            <path d="M34,15 C34,15.552 33.552,16 33,16 C32.448,16 32,15.552 32,15 C32,14.448 32.448,14 33,14 C33.552,14 34,14.448 34,15" id="Fill-19" fill="#000000" sketch:type="MSShapeGroup"></path>
            <path d="M40,15 C40,15.552 39.552,16 39,16 C38.448,16 38,15.552 38,15 C38,14.448 38.448,14 39,14 C39.552,14 40,14.448 40,15" id="Fill-20" fill="#000000" sketch:type="MSShapeGroup"></path>
            <path d="M37,12 C37,12.552 36.552,13 36,13 C35.448,13 35,12.552 35,12 C35,11.448 35.448,11 36,11 C36.552,11 37,11.448 37,12" id="Fill-21" fill="#000000" sketch:type="MSShapeGroup"></path>
            <path d="M34,21 C34,21.552 33.552,22 33,22 C32.448,22 32,21.552 32,21 C32,20.448 32.448,20 33,20 C33.552,20 34,20.448 34,21" id="Fill-22" fill="#000000" sketch:type="MSShapeGroup"></path>
            <path d="M40,21 C40,21.552 39.552,22 39,22 C38.448,22 38,21.552 38,21 C38,20.448 38.448,20 39,20 C39.552,20 40,20.448 40,21" id="Fill-23" fill="#000000" sketch:type="MSShapeGroup"></path>
            <path d="M52,21 C52,21.552 51.552,22 51,22 C50.448,22 50,21.552 50,21 C50,20.448 50.448,20 51,20 C51.552,20 52,20.448 52,21" id="Fill-24" fill="#000000" sketch:type="MSShapeGroup"></path>
            <path d="M37,18 C37,18.552 36.552,19 36,19 C35.448,19 35,18.552 35,18 C35,17.448 35.448,17 36,17 C36.552,17 37,17.448 37,18" id="Fill-25" fill="#000000" sketch:type="MSShapeGroup"></path>
            <path d="M43,12 C43,12.552 42.552,13 42,13 C41.448,13 41,12.552 41,12 C41,11.448 41.448,11 42,11 C42.552,11 43,11.448 43,12" id="Fill-26" fill="#000000" sketch:type="MSShapeGroup"></path>
            <path d="M46,15 C46,15.552 45.552,16 45,16 C44.448,16 44,15.552 44,15 C44,14.448 44.448,14 45,14 C45.552,14 46,14.448 46,15" id="Fill-27" fill="#000000" sketch:type="MSShapeGroup"></path>
            <path d="M52,15 C52,15.552 51.552,16 51,16 C50.448,16 50,15.552 50,15 C50,14.448 50.448,14 51,14 C51.552,14 52,14.448 52,15" id="Fill-28" fill="#000000" sketch:type="MSShapeGroup"></path>
            <path d="M49,12 C49,12.552 48.552,13 48,13 C47.448,13 47,12.552 47,12 C47,11.448 47.448,11 48,11 C48.552,11 49,11.448 49,12" id="Fill-29" fill="#000000" sketch:type="MSShapeGroup"></path>
            <path d="M43,18 C43,18.552 42.552,19 42,19 C41.448,19 41,18.552 41,18 C41,17.448 41.448,17 42,17 C42.552,17 43,17.448 43,18" id="Fill-30" fill="#000000" sketch:type="MSShapeGroup"></path>
            <path d="M46,21 C46,21.552 45.552,22 45,22 C44.448,22 44,21.552 44,21 C44,20.448 44.448,20 45,20 C45.552,20 46,20.448 46,21" id="Fill-31" fill="#000000" sketch:type="MSShapeGroup"></path>
            <path d="M49,18 C49,18.552 48.552,19 48,19 C47.448,19 47,18.552 47,18 C47,17.448 47.448,17 48,17 C48.552,17 49,17.448 49,18" id="Fill-32" fill="#000000" sketch:type="MSShapeGroup"></path>
            <path d="M55,12 C55,12.552 54.552,13 54,13 C53.448,13 53,12.552 53,12 C53,11.448 53.448,11 54,11 C54.552,11 55,11.448 55,12" id="Fill-33" fill="#000000" sketch:type="MSShapeGroup"></path>
            <path d="M55,18 C55,18.552 54.552,19 54,19 C53.448,19 53,18.552 53,18 C53,17.448 53.448,17 54,17 C54.552,17 55,17.448 55,18" id="Fill-34" fill="#000000" sketch:type="MSShapeGroup"></path>
            <path d="M58,21 C58,21.552 57.552,22 57,22 C56.448,22 56,21.552 56,21 C56,20.448 56.448,20 57,20 C57.552,20 58,20.448 58,21" id="Fill-35" fill="#000000" sketch:type="MSShapeGroup"></path>
            <path d="M58,15 C58,15.552 57.552,16 57,16 C56.448,16 56,15.552 56,15 C56,14.448 56.448,14 57,14 C57.552,14 58,14.448 58,15" id="Fill-36" fill="#000000" sketch:type="MSShapeGroup"></path>
            <path d="M37,24 C37,24.552 36.552,25 36,25 C35.448,25 35,24.552 35,24 C35,23.448 35.448,23 36,23 C36.552,23 37,23.448 37,24" id="Fill-37" fill="#000000" sketch:type="MSShapeGroup"></path>
            <path d="M52,33 C52,33.552 51.552,34 51,34 C50.448,34 50,33.552 50,33 C50,32.448 50.448,32 51,32 C51.552,32 52,32.448 52,33" id="Fill-38" fill="#000000" sketch:type="MSShapeGroup"></path>
            <path d="M43,24 C43,24.552 42.552,25 42,25 C41.448,25 41,24.552 41,24 C41,23.448 41.448,23 42,23 C42.552,23 43,23.448 43,24" id="Fill-39" fill="#000000" sketch:type="MSShapeGroup"></path>
            <path d="M46,27 C46,27.552 45.552,28 45,28 C44.448,28 44,27.552 44,27 C44,26.448 44.448,26 45,26 C45.552,26 46,26.448 46,27" id="Fill-40" fill="#000000" sketch:type="MSShapeGroup"></path>
            <path d="M52,27 C52,27.552 51.552,28 51,28 C50.448,28 50,27.552 50,27 C50,26.448 50.448,26 51,26 C51.552,26 52,26.448 52,27" id="Fill-41" fill="#000000" sketch:type="MSShapeGroup"></path>
            <path d="M49,24 C49,24.552 48.552,25 48,25 C47.448,25 47,24.552 47,24 C47,23.448 47.448,23 48,23 C48.552,23 49,23.448 49,24" id="Fill-42" fill="#000000" sketch:type="MSShapeGroup"></path>
            <path d="M49,30 C49,30.552 48.552,31 48,31 C47.448,31 47,30.552 47,30 C47,29.448 47.448,29 48,29 C48.552,29 49,29.448 49,30" id="Fill-43" fill="#000000" sketch:type="MSShapeGroup"></path>
            <path d="M55,24 C55,24.552 54.552,25 54,25 C53.448,25 53,24.552 53,24 C53,23.448 53.448,23 54,23 C54.552,23 55,23.448 55,24" id="Fill-44" fill="#000000" sketch:type="MSShapeGroup"></path>
            <path d="M55,30 C55,30.552 54.552,31 54,31 C53.448,31 53,30.552 53,30 C53,29.448 53.448,29 54,29 C54.552,29 55,29.448 55,30" id="Fill-45" fill="#000000" sketch:type="MSShapeGroup"></path>
            <path d="M58,33 C58,33.552 57.552,34 57,34 C56.448,34 56,33.552 56,33 C56,32.448 56.448,32 57,32 C57.552,32 58,32.448 58,33" id="Fill-46" fill="#000000" sketch:type="MSShapeGroup"></path>
            <path d="M58,27 C58,27.552 57.552,28 57,28 C56.448,28 56,27.552 56,27 C56,26.448 56.448,26 57,26 C57.552,26 58,26.448 58,27" id="Fill-47" fill="#000000" sketch:type="MSShapeGroup"></path>
        </g>
    </g>
</svg>